<?xml version="1.0" encoding="UTF-8" standalone="no"?>
<svg width="275px" height="106px" viewBox="0 0 275 106" version="1.1" xmlns="http://www.w3.org/2000/svg" xmlns:xlink="http://www.w3.org/1999/xlink">
    <!-- Generator: Sketch 44.1 (41455) - http://www.bohemiancoding.com/sketch -->
    <title>Group 23</title>
    <desc>Created with Sketch.</desc>
    <defs>
        <linearGradient x1="100%" y1="50%" x2="0%" y2="50%" id="linearGradient-1">
            <stop stop-color="#6A25BF" offset="0%"></stop>
            <stop stop-color="#6560B7" offset="100%"></stop>
        </linearGradient>
    </defs>
    <g id="FlowAlgo-v2" stroke="none" stroke-width="1" fill="none" fill-rule="evenodd">
        <g id="Homepage-Copy-4" transform="translate(-701.000000, -7063.000000)">
            <g id="Group-23" transform="translate(701.000000, 7064.000000)">
                <rect id="Rectangle-5-Copy" fill="url(#linearGradient-1)" x="0" y="22" width="275" height="1"></rect>
                <g id="Group-24" transform="translate(136.500000, 52.500000) scale(1, -1) translate(-136.500000, -52.500000) translate(18.000000, 0.000000)">
                    <rect id="Rectangle-18" fill="#FF1618" x="0" y="82" width="7" height="17"></rect>
                    <rect id="Rectangle-18-Copy-3" fill="#FF1618" x="30" y="86" width="7" height="16"></rect>
                    <rect id="Rectangle-18-Copy-8" fill="#FF1618" x="80" y="91" width="7" height="11"></rect>
                    <rect id="Rectangle-18-Copy-15" fill="#FF1618" x="150" y="91" width="7" height="8"></rect>
                    <rect id="Rectangle-18-Copy-16" fill="#FF1618" x="160" y="87" width="7" height="3"></rect>
                    <rect id="Rectangle-18-Copy-17" fill="#FF1618" x="170" y="74" width="7" height="11"></rect>
                    <rect id="Rectangle-18-Copy-18" fill="#FF1618" x="180" y="54" width="7" height="16"></rect>
                    <rect id="Rectangle-18-Copy-19" fill="#FF1618" x="190" y="42" width="7" height="11"></rect>
                    <rect id="Rectangle-18-Copy-20" fill="#FF1618" x="200" y="33" width="7" height="11"></rect>
                    <rect id="Rectangle-18-Copy-21" fill="#FF1618" x="220" y="17" width="7" height="17"></rect>
                    <rect id="Rectangle-18-Copy-23" fill="#FF1618" x="230" y="3" width="7" height="17"></rect>
                    <rect id="Rectangle-18-Copy-11" fill="#FF1618" x="110" y="93" width="7" height="8"></rect>
                    <rect id="Rectangle-18-Copy-12" fill="#FF1618" x="120" y="85" width="7" height="8"></rect>
                    <rect id="Rectangle-18-Copy-5" fill="#FF1618" x="50" y="86" width="7" height="8"></rect>
                    <rect id="Rectangle-18-Copy" fill="#00BF9A" x="10" y="77" width="7" height="11"></rect>
                    <rect id="Rectangle-18-Copy-2" fill="#00BF9A" x="20" y="88" width="7" height="11"></rect>
                    <rect id="Rectangle-18-Copy-4" fill="#00BF9A" x="40" y="86" width="7" height="8"></rect>
                    <rect id="Rectangle-18-Copy-6" fill="#00BF9A" x="60" y="83" width="7" height="11"></rect>
                    <rect id="Rectangle-18-Copy-13" fill="#00BF9A" x="130" y="85" width="7" height="11"></rect>
                    <rect id="Rectangle-18-Copy-7" fill="#00BF9A" x="70" y="94" width="7" height="11"></rect>
                    <rect id="Rectangle-18-Copy-9" fill="#00BF9A" x="90" y="91" width="7" height="3"></rect>
                    <rect id="Rectangle-18-Copy-10" fill="#00BF9A" x="100" y="93" width="7" height="8"></rect>
                    <rect id="Rectangle-18-Copy-14" fill="#00BF9A" x="140" y="96" width="7" height="3"></rect>
                    <rect id="Rectangle-18-Copy-22" fill="#00BF9A" x="210" y="32" width="7" height="3"></rect>
                    <path d="M3.5,76.5 L3.5,91.6536192" id="Line" stroke="#FF0000" stroke-linecap="square"></path>
                    <path d="M13.5,75.5 L13.5,90.6536192" id="Line-Copy-31" stroke="#00BF9A" stroke-linecap="square"></path>
                    <path d="M23.5,89.5 L23.5,104.653619" id="Line-Copy-41" stroke="#00BF9A" stroke-linecap="square"></path>
                    <path d="M63.5,89.5 L63.5,104.653619" id="Line-Copy-42" stroke="#00BF9A" stroke-linecap="square"></path>
                    <path d="M93.5,89.5 L93.5,104.653619" id="Line-Copy-43" stroke="#00BF9A" stroke-linecap="square"></path>
                    <path d="M103.5,84.5 L103.5,99.6536192" id="Line-Copy-44" stroke="#00BF9A" stroke-linecap="square"></path>
                    <path d="M133.5,79.5 L133.5,94.6536192" id="Line-Copy-45" stroke="#00BF9A" stroke-linecap="square"></path>
                    <path d="M143.5,94 L143.5,103.15" id="Line-Copy-46" stroke="#00BF9A" stroke-linecap="square"></path>
                    <path d="M213.5,30 L213.5,39.1499996" id="Line-Copy-48" stroke="#00BF9A" stroke-linecap="square"></path>
                    <path d="M33.5,82.5 L33.5,104.5" id="Line-Copy-30" stroke="#FF0000" stroke-linecap="square"></path>
                    <path d="M203.5,29.5 L203.5,48.5" id="Line-Copy-47" stroke="#FF0000" stroke-linecap="square"></path>
                    <path d="M223.5,26.5 L223.5,37.5" id="Line-Copy-49" stroke="#FF0000" stroke-linecap="square"></path>
                    <path d="M233.5,0.5 L233.5,11.5" id="Line-Copy-50" stroke="#FF0000" stroke-linecap="square"></path>
                    <path d="M53.5,82.5 L53.5,101.5" id="Line-Copy-32" stroke="#FF0000" stroke-linecap="square"></path>
                    <path d="M83.5,86.5 L83.5,93.5" id="Line-Copy-36" stroke="#FF0000" stroke-linecap="square"></path>
                    <path d="M123.5,82.5 L123.5,89.5" id="Line-Copy-37" stroke="#FF0000" stroke-linecap="square"></path>
                    <path d="M153.5,97.5 L153.5,104.5" id="Line-Copy-38" stroke="#FF0000" stroke-linecap="square"></path>
                    <path d="M163.5,86 L163.5,92" id="Line-Copy-39" stroke="#FF0000" stroke-linecap="square"></path>
                    <path d="M183.5,67 L183.5,73" id="Line-Copy-40" stroke="#FF0000" stroke-linecap="square"></path>
                </g>
            </g>
        </g>
    </g>
</svg>